{
  "name": "Freshgala",
  "short_name": "Freshgala",
  "start_url": "/vendors/sign_in",
  "icons": [
    
    {
      "src": "/assets/serviceworker-rails/heart-36x36-2f0b196ef98bf6940e9719e60844273b6c3607a127ab21803a989b51dcf490bc.png",
      "sizes": "36x36",
      "type": "image/png"
    }
    ,
    
    {
      "src": "/assets/serviceworker-rails/heart-48x48-62d30c6acdef83c42a01121be6501b2552995be96441b9eadaedca446d7f4b5f.png",
      "sizes": "48x48",
      "type": "image/png"
    }
    ,
    
    {
      "src": "/assets/serviceworker-rails/heart-60x60-9aea3d29f6a85dd246f89d9db36e1944c9f9fd649d052c278bf2a31f37cce6d8.png",
      "sizes": "60x60",
      "type": "image/png"
    }
    ,
    
    {
      "src": "/assets/serviceworker-rails/heart-72x72-474e889752849872383f5a3a9528107e610cd7d723bf483aebb8dd4e3adadc5c.png",
      "sizes": "72x72",
      "type": "image/png"
    }
    ,
    
    {
      "src": "/assets/serviceworker-rails/heart-76x76-cebcd7285592aa664bc437131a55b0434043a3adc3a292ac0aef98e900c2dcde.png",
      "sizes": "76x76",
      "type": "image/png"
    }
    ,
    
    {
      "src": "/assets/serviceworker-rails/heart-96x96-817f2a443ddb4b6b607e6538b2c37cfe46da24b77d9622b54d6f1800d1187018.png",
      "sizes": "96x96",
      "type": "image/png"
    }
    ,
    
    {
      "src": "/assets/serviceworker-rails/heart-120x120-6af554cd96341e1bb4457a53727a6daf9beaf9cd383b9f49d13e8ff48d9d6995.png",
      "sizes": "120x120",
      "type": "image/png"
    }
    ,
    
    {
      "src": "/assets/serviceworker-rails/heart-152x152-0f965e88ace9d61e0c43fe5dc1c920c7548136d42d9d3744f977b3636b649fde.png",
      "sizes": "152x152",
      "type": "image/png"
    }
    ,
    
    {
      "src": "/assets/serviceworker-rails/heart-180x180-87a26af4da86a713ec42d0d5dc94f7b4ad414abfc7005b06c9b4b066318d897a.png",
      "sizes": "180x180",
      "type": "image/png"
    }
    ,
    
    {
      "src": "/assets/serviceworker-rails/heart-192x192-5f6108b873e5fa9a94d74e6848cace923310f98803d4481429f184b586ce0119.png",
      "sizes": "192x192",
      "type": "image/png"
    }
    ,
    
    {
      "src": "/assets/serviceworker-rails/heart-512x512-f62845cd4dbf565496ffe50bc26742a0ba0a14016ebc810469cdfe4a8ebe11c5.png",
      "sizes": "512x512",
      "type": "image/png"
    }
    
    
  ],
  "theme_color": "#9FB7E8",
  "scope": "/vendors/",
  "background_color": "#D0AB78",
  "display": "standalone",
  "orientation": "portrait"
}
