[
  {
    "name": "Claire Dunphy",
    "email": "aadithya8111@gmail.com",
    "mobile": "9367733300",
    "active": true
  },
  {
    "name": "Phil Dunphy",
    "email": "vigneshsiddhu94@gmail.com",
    "mobile": "9994945543",
    "active": true
  },
  {
    "name": "Alex Dunphy",
    "email": "parthi1993@gmail.com",
    "mobile": "8903630207",
    "active": true
  },
  {
    "name": "Luke Dunphy",
    "email": "sunilaadithya@gmail.com",
    "mobile": "9047274828",
    "active": true
  },
  {
    "name": "Haley Dunphy",
    "email": "parthi@gmail.com",
    "mobile": "8939033300",
    "active": true
  }
]
